{
  "project_info": {
    "project_number": "287935756305",
    "firebase_url": "https://doppler-1c851.firebaseio.com",
    "project_id": "doppler-1c851",
    "storage_bucket": "doppler-1c851.appspot.com"
  },
  "client": [
    {
      "client_info": {
        "mobilesdk_app_id": "1:287935756305:android:e74fadc9c674f5f3",
        "android_client_info": {
          "package_name": "com.doppler.free"
        }
      },
      "oauth_client": [
        {
          "client_id": "287935756305-h1of56923lo4vn9keqve3c8b5hgepk68.apps.googleusercontent.com",
          "client_type": 1,
          "android_info": {
            "package_name": "com.doppler.free",
            "certificate_hash": "8df900142ca4c37f1cd0dd414f8926e3787706ea"
          }
        },
        {
          "client_id": "287935756305-jtgqirc674tkavm3thib7f7ev7bpeov3.apps.googleusercontent.com",
          "client_type": 3
        }
      ],
      "api_key": [
        {
          "current_key": "AIzaSyBtFYl41Q7hP3l0Va3WJZf0kzFrD9LvUZA"
        }
      ],
      "services": {
        "analytics_service": {
          "status": 1
        },
        "appinvite_service": {
          "status": 2,
          "other_platform_oauth_client": [
            {
              "client_id": "287935756305-jtgqirc674tkavm3thib7f7ev7bpeov3.apps.googleusercontent.com",
              "client_type": 3
            }
          ]
        },
        "ads_service": {
          "status": 2
        }
      },
      "admob_app_id": "ca-app-pub-9180222631786193~8782422432"
    },
    {
      "client_info": {
        "mobilesdk_app_id": "1:287935756305:android:0f6df7c876758bcc",
        "android_client_info": {
          "package_name": "com.doppler.pro"
        }
      },
      "oauth_client": [
        {
          "client_id": "287935756305-uqa4s8sg40t2f2mfr9kkomssp0slekmk.apps.googleusercontent.com",
          "client_type": 1,
          "android_info": {
            "package_name": "com.doppler.pro",
            "certificate_hash": "8df900142ca4c37f1cd0dd414f8926e3787706ea"
          }
        },
        {
          "client_id": "287935756305-jtgqirc674tkavm3thib7f7ev7bpeov3.apps.googleusercontent.com",
          "client_type": 3
        }
      ],
      "api_key": [
        {
          "current_key": "AIzaSyBtFYl41Q7hP3l0Va3WJZf0kzFrD9LvUZA"
        }
      ],
      "services": {
        "analytics_service": {
          "status": 1
        },
        "appinvite_service": {
          "status": 2,
          "other_platform_oauth_client": [
            {
              "client_id": "287935756305-jtgqirc674tkavm3thib7f7ev7bpeov3.apps.googleusercontent.com",
              "client_type": 3
            }
          ]
        },
        "ads_service": {
          "status": 2
        }
      }
    }
  ],
  "configuration_version": "1"
}